…
Use `modelr::crossv_mc`

``` r
cv_df = 
  crossv_mc(nonlin_df, 100) %>% 
  mutate(
    train = map(train, as_tibble),
    test = map(test, as_tibble)
  )

cv_df
```

    ## # A tibble: 100 x 3
    ##    train             test              .id  
    ##    <list>            <list>            <chr>
    ##  1 <tibble [79 x 3]> <tibble [21 x 3]> 001  
    ##  2 <tibble [79 x 3]> <tibble [21 x 3]> 002  
    ##  3 <tibble [79 x 3]> <tibble [21 x 3]> 003  
    ##  4 <tibble [79 x 3]> <tibble [21 x 3]> 004  
    ##  5 <tibble [79 x 3]> <tibble [21 x 3]> 005  
    ##  6 <tibble [79 x 3]> <tibble [21 x 3]> 006  
    ##  7 <tibble [79 x 3]> <tibble [21 x 3]> 007  
    ##  8 <tibble [79 x 3]> <tibble [21 x 3]> 008  
    ##  9 <tibble [79 x 3]> <tibble [21 x 3]> 009  
    ## 10 <tibble [79 x 3]> <tibble [21 x 3]> 010  
    ## # ... with 90 more rows
…
