…
Finally, for male, white non-hispanic children born in 2016, produce a
scatter plot showing the number of children with a name (y axis) against
the rank in popularity of that name (x axis).

``` r
# prepare data
whiteboys2016_df=
  babynames_df %>% 
  filter(gender == 'MALE' & ethnicity == 'WHITE NON HISPANIC' & year_of_birth == 2016)

whiteboys2016_df
```

    ## # A tibble: 364 x 6
    ## # Groups:   year_of_birth, gender, ethnicity [1]
    ##    year_of_birth gender ethnicity          childs_first_name count  rank
    ##            <dbl> <chr>  <chr>              <chr>             <dbl> <int>
    ##  1          2016 MALE   WHITE NON HISPANIC Joseph              261     1
    ##  2          2016 MALE   WHITE NON HISPANIC Michael             260     2
    ##  3          2016 MALE   WHITE NON HISPANIC David               255     3
    ##  4          2016 MALE   WHITE NON HISPANIC Moshe               239     4
    ##  5          2016 MALE   WHITE NON HISPANIC Jacob               236     5
    ##  6          2016 MALE   WHITE NON HISPANIC James               231     6
    ##  7          2016 MALE   WHITE NON HISPANIC Benjamin            219     7
    ##  8          2016 MALE   WHITE NON HISPANIC Alexander           211     8
    ##  9          2016 MALE   WHITE NON HISPANIC Daniel              196     9
    ## 10          2016 MALE   WHITE NON HISPANIC Henry               196     9
    ## # ... with 354 more rows
…
